-------------------------------------------------------------------------------
Test set: com.org.managerBeauty.application.TestEventsServices
-------------------------------------------------------------------------------
Tests run: 2, Failures: 0, Errors: 0, Skipped: 0, Time elapsed: 0.612 sec
